<svg width="58" height="58" viewBox="0 0 58 58" fill="none" xmlns="http://www.w3.org/2000/svg">
<rect x="6" y="5" width="48" height="48" rx="2" fill="#F0ECF8"/>
<path d="M48.977 12.9053H40.1629L42.5197 11.0397C42.6269 10.9549 42.7135 10.8469 42.773 10.7239C42.8326 10.6008 42.8635 10.4659 42.8635 10.3292V8.76672C43.9096 8.39323 44.6605 7.39307 44.6605 6.22027C44.6605 4.72972 43.4478 3.51704 41.9573 3.51704C40.4667 3.51704 39.254 4.72972 39.254 6.22027C39.254 7.39296 40.005 8.39323 41.051 8.76672V9.89081L37.9735 12.3268L37.1566 11.5101C37.0271 11.3806 36.8614 11.2935 36.6814 11.26C36.5013 11.2266 36.3154 11.2484 36.148 11.3227L34.5768 12.0205C33.8023 11.5873 32.9799 11.2463 32.1262 11.0044L31.509 9.4011C31.4432 9.23019 31.3272 9.08322 31.1762 8.97956C31.0252 8.8759 30.8464 8.82042 30.6632 8.82042H29.9058V5.58952C30.9519 5.21603 31.7028 4.21576 31.7028 3.04307C31.7028 1.55252 30.49 0.339844 28.9996 0.339844C27.5092 0.339844 26.2964 1.55252 26.2964 3.04296C26.2964 4.21576 27.0473 5.21603 28.0933 5.58941V8.8203H27.336C27.1528 8.82032 26.974 8.87581 26.823 8.97947C26.672 9.08312 26.556 9.23008 26.4902 9.40098L25.873 11.0044C25.0193 11.2463 24.1968 11.5873 23.4224 12.0205L21.8512 11.3227C21.6839 11.2483 21.4979 11.2264 21.3178 11.2598C21.1377 11.2933 20.972 11.3805 20.8426 11.5101L20.0257 12.3268L16.9482 9.89081V8.76672C17.9942 8.39323 18.7452 7.39307 18.7452 6.22027C18.7452 4.72972 17.5325 3.51704 16.0419 3.51704C14.5514 3.51704 13.3387 4.72972 13.3387 6.22027C13.3387 7.39296 14.0896 8.39323 15.1357 8.76672V10.3292C15.1357 10.4659 15.1666 10.6008 15.2262 10.7239C15.2857 10.8469 15.3723 10.9549 15.4795 11.0397L17.8363 12.9053H9.02222C6.52109 12.9053 4.48633 14.9401 4.48633 17.4412V42.4114C4.48633 44.9125 6.52109 46.9473 9.02222 46.9473H20.674V50.9015H16.0554C13.8489 50.9015 12.0539 52.4174 12.0539 54.2808V56.7539C12.0539 56.9943 12.1493 57.2248 12.3193 57.3947C12.4892 57.5647 12.7198 57.6602 12.9601 57.6602H45.0391C45.2794 57.6602 45.51 57.5647 45.6799 57.3947C45.8499 57.2248 45.9453 56.9943 45.9453 56.7539V54.2808C45.9453 52.4174 44.1503 50.9015 41.9438 50.9015H37.3252V46.9473H48.977C51.478 46.9473 53.5129 44.9125 53.5129 42.4114V17.4412C53.5129 14.9401 51.478 12.9053 48.977 12.9053ZM41.9573 5.32954C42.4484 5.32954 42.848 5.72909 42.848 6.22027C42.848 6.5898 42.6217 6.90732 42.3004 7.04202H41.6141C41.2929 6.90744 41.0665 6.5898 41.0665 6.22027C41.0665 5.72909 41.4662 5.32954 41.9573 5.32954ZM28.9996 2.15234C29.4907 2.15234 29.8903 2.55189 29.8903 3.04296C29.8903 3.53415 29.4908 3.93369 28.9996 3.93369C28.5084 3.93369 28.1089 3.53415 28.1089 3.04296C28.1089 2.55189 28.5084 2.15234 28.9996 2.15234ZM16.0419 5.32954C16.533 5.32954 16.9327 5.72909 16.9327 6.22027C16.9327 6.71135 16.5331 7.11089 16.0419 7.11089C15.5507 7.11089 15.1512 6.71135 15.1512 6.22027C15.1512 5.72909 15.5508 5.32954 16.0419 5.32954ZM16.3807 19.5104C16.2098 19.5762 16.0629 19.6923 15.9592 19.8432C15.8555 19.9942 15.8001 20.173 15.8001 20.3562V21.1137H13.6212C13.2478 20.0675 12.2475 19.3167 11.0748 19.3167C10.4374 19.3163 9.82053 19.5421 9.33409 19.9539V17.753H18.3746C18.2243 18.1259 18.0939 18.5066 17.9839 18.8934L16.3807 19.5104ZM11.9654 22.0199C11.9654 22.511 11.5658 22.9106 11.0747 22.9106C10.5835 22.9106 10.1839 22.511 10.1839 22.0199C10.1839 21.5288 10.5835 21.1292 11.0747 21.1292C11.5658 21.1292 11.9654 21.5288 11.9654 22.0199ZM9.33409 24.0859C9.82052 24.4977 10.4374 24.7235 11.0748 24.7231C12.2475 24.7231 13.2477 23.9722 13.6212 22.9262H15.8001V23.6837C15.8001 23.8668 15.8555 24.0457 15.9592 24.1967C16.0629 24.3476 16.2098 24.4637 16.3807 24.5295L17.9835 25.1464C18.2254 26.0004 18.5665 26.8232 18.9997 27.5979L18.3021 29.1684C18.2278 29.3358 18.2059 29.5218 18.2393 29.7018C18.2728 29.8819 18.36 30.0476 18.4895 30.1771L20.8423 32.53C20.9718 32.6594 21.1375 32.7467 21.3176 32.7801C21.4977 32.8136 21.6836 32.7917 21.851 32.7173L23.4223 32.0195C24.1968 32.4526 25.0192 32.7936 25.8729 33.0355L26.4901 34.6388C26.5559 34.8097 26.6719 34.9567 26.8229 35.0603C26.9739 35.164 27.1527 35.2195 27.3358 35.2195H30.6632C30.8464 35.2195 31.0252 35.164 31.1762 35.0603C31.3272 34.9567 31.4432 34.8097 31.509 34.6388L32.1259 33.0361C32.98 32.7942 33.8028 32.4531 34.5775 32.0197L36.148 32.7173C36.3154 32.7917 36.5013 32.8136 36.6814 32.7801C36.8614 32.7467 37.0271 32.6595 37.1566 32.53L39.5095 30.1771C39.639 30.0476 39.7262 29.8819 39.7597 29.7019C39.7932 29.5218 39.7713 29.3358 39.697 29.1684L38.9992 27.5971C39.4323 26.8227 39.7732 26.0002 40.0152 25.1465L41.6185 24.5294C41.7894 24.4636 41.9363 24.3475 42.04 24.1966C42.1437 24.0456 42.1991 23.8667 42.1991 23.6836V22.9262H44.378C44.7514 23.9722 45.7516 24.7231 46.9244 24.7231C47.5871 24.7231 48.1945 24.4829 48.6652 24.0857V39.0206H9.33409V24.0859ZM46.0337 22.0199C46.0337 21.5288 46.4332 21.1292 46.9243 21.1292C47.4155 21.1292 47.8151 21.5288 47.8151 22.0199C47.8151 22.511 47.4155 22.9106 46.9243 22.9106C46.4332 22.9106 46.0337 22.511 46.0337 22.0199ZM48.6652 19.954C48.1788 19.5421 47.5619 19.3162 46.9244 19.3167C45.7517 19.3167 44.7515 20.0677 44.378 21.1137H42.1991V20.3562C42.1991 20.173 42.1437 19.9942 42.04 19.8432C41.9363 19.6923 41.7894 19.5762 41.6185 19.5104L40.0158 18.8936C39.9058 18.5068 39.7754 18.126 39.625 17.753H48.6652V19.954ZM21.6841 13.2317L23.1118 13.8657C23.2463 13.9255 23.3934 13.9516 23.5403 13.9417C23.6871 13.9319 23.8294 13.8864 23.9547 13.8092C24.8224 13.2744 25.7699 12.8815 26.7615 12.6455C26.9047 12.6114 27.0374 12.543 27.1482 12.4461C27.2591 12.3493 27.3446 12.2268 27.3975 12.0895L27.9582 10.633H30.0411L30.6017 12.0895C30.6546 12.2269 30.7401 12.3493 30.8509 12.4462C30.9617 12.5431 31.0945 12.6115 31.2377 12.6455C32.2293 12.8815 33.1768 13.2744 34.0445 13.8092C34.1698 13.8864 34.3121 13.932 34.4589 13.9418C34.6058 13.9517 34.7529 13.9255 34.8874 13.8657L36.3151 13.2317L37.788 14.7045L37.1541 16.1316C37.0944 16.2661 37.0683 16.4132 37.0782 16.5601C37.0881 16.707 37.1336 16.8493 37.2108 16.9746C37.7458 17.8425 38.1387 18.7902 38.3746 19.7821C38.4087 19.9253 38.4771 20.058 38.574 20.1688C38.6709 20.2796 38.7934 20.3652 38.9307 20.418L40.3867 20.9784V23.0613L38.9303 23.622C38.7929 23.6749 38.6705 23.7604 38.5736 23.8712C38.4768 23.9819 38.4083 24.1147 38.3742 24.2578C38.1382 25.2494 37.7454 26.1969 37.2106 27.0646C37.1334 27.1899 37.0879 27.3322 37.078 27.479C37.0682 27.6259 37.0942 27.773 37.1539 27.9075L37.788 29.3353L36.3152 30.8081L34.8882 30.1743C34.7536 30.1145 34.6066 30.0885 34.4597 30.0983C34.3128 30.1082 34.1705 30.1537 34.0451 30.2309C33.1773 30.7659 32.2296 31.1587 31.2378 31.3945C31.0946 31.4286 30.9618 31.497 30.851 31.5939C30.7402 31.6908 30.6546 31.8133 30.6017 31.9506L30.0412 33.4068H27.9583L27.3977 31.9503C27.3449 31.8129 27.2593 31.6905 27.1485 31.5936C27.0377 31.4967 26.9049 31.4283 26.7617 31.3943C25.7701 31.1583 24.8226 30.7655 23.9548 30.2307C23.8295 30.1535 23.6872 30.1081 23.5404 30.0982C23.3935 30.0884 23.2465 30.1144 23.1119 30.1742L21.6842 30.8082L20.2114 29.3354L20.8452 27.9083C20.9049 27.7738 20.931 27.6267 20.9211 27.4798C20.9113 27.3329 20.8657 27.1906 20.7885 27.0653C20.2536 26.1974 19.8607 25.2496 19.6247 24.2577C19.5906 24.1145 19.5222 23.9818 19.4253 23.871C19.3284 23.7602 19.2059 23.6747 19.0686 23.6219L17.6126 23.0615V20.9786L19.0689 20.4179C19.2063 20.365 19.3287 20.2795 19.4256 20.1687C19.5224 20.058 19.5909 19.9252 19.625 19.7821C19.8609 18.7904 20.2538 17.8428 20.7887 16.9752C20.8659 16.8498 20.9114 16.7076 20.9213 16.5607C20.9311 16.4138 20.905 16.2667 20.8453 16.1322L20.2114 14.7046L21.6841 13.2317ZM44.1328 54.2808V55.8477H13.8664V54.2808C13.8664 53.4315 14.8688 52.714 16.0554 52.714H41.9438C43.1304 52.714 44.1328 53.4315 44.1328 54.2808ZM35.5127 50.9015H22.4865V46.9473H35.5127V50.9015ZM51.7004 42.4114C51.7004 43.913 50.4786 45.1348 48.977 45.1348H9.02222C7.52057 45.1348 6.29883 43.913 6.29883 42.4114V17.4412C6.29883 15.9396 7.52057 14.7178 9.02222 14.7178H18.2514C18.264 14.7698 18.28 14.8214 18.3022 14.8715L18.777 15.9405H8.93115C8.15392 15.9405 7.52159 16.5728 7.52159 17.35V39.9269C7.52159 40.1672 7.61707 40.3977 7.78702 40.5677C7.95698 40.7377 8.18748 40.8331 8.42784 40.8331H49.5715C49.8118 40.8331 50.0423 40.7377 50.2123 40.5677C50.3822 40.3977 50.4777 40.1672 50.4777 39.9269V17.35C50.4777 16.5728 49.8453 15.9405 49.0681 15.9405H39.2221L39.697 14.8713C39.7192 14.8213 39.7352 14.7697 39.7478 14.7178H48.977C50.4786 14.7178 51.7004 15.9396 51.7004 17.4412V42.4114ZM28.9996 28.8734C32.7785 28.8734 35.8531 25.7989 35.8531 22.0199C35.8531 18.241 32.7787 15.1664 28.9996 15.1664C25.2205 15.1664 22.1461 18.241 22.1461 22.0199C22.1461 25.7989 25.2205 28.8734 28.9996 28.8734ZM28.9996 16.9789C31.7792 16.9789 34.0406 19.2404 34.0406 22.0199C34.0406 24.7995 31.7793 27.0609 28.9996 27.0609C26.2199 27.0609 23.9586 24.7995 23.9586 22.0199C23.9586 19.2404 26.22 16.9789 28.9996 16.9789Z" fill="url(#paint0_linear_1232_1057)"/>
<defs>
<linearGradient id="paint0_linear_1232_1057" x1="4.48633" y1="29" x2="57.0046" y2="29" gradientUnits="userSpaceOnUse">
<stop stop-color="#673EB6"/>
<stop offset="1" stop-color="#291949"/>
</linearGradient>
</defs>
</svg>
