<svg width="58" height="58" viewBox="0 0 58 58" fill="none" xmlns="http://www.w3.org/2000/svg">
<rect x="6" y="5" width="48" height="48" rx="2" fill="#F0ECF8"/>
<g clip-path="url(#clip0_1232_1236)">
<path d="M28.0938 16.3125C28.0938 9.8165 22.8085 4.53125 16.3125 4.53125C9.8165 4.53125 4.53125 9.8165 4.53125 16.3125C4.53125 22.8085 9.8165 28.0938 16.3125 28.0938C22.8085 28.0938 28.0938 22.8085 28.0938 16.3125ZM16.3125 17.2188C17.1285 17.2199 17.9383 17.3593 18.7077 17.6311C18.2455 18.5029 17.3338 19.0883 16.3125 19.0883C15.2912 19.0883 14.3795 18.5029 13.9173 17.6311C14.6867 17.3593 15.4965 17.2199 16.3125 17.2188ZM13.5938 12.6875C13.5938 11.1886 14.8136 9.96875 16.3125 9.96875C17.8114 9.96875 19.0312 11.1886 19.0312 12.6875C19.0312 14.1864 17.8114 15.4062 16.3125 15.4062C14.8136 15.4062 13.5938 14.1864 13.5938 12.6875ZM17.2188 26.235V20.7984C17.8791 20.6593 18.5003 20.3751 19.0373 19.9663C19.5743 19.5575 20.0137 19.0344 20.3236 18.4349C21.1473 18.9816 21.8498 19.6918 22.3877 20.5213C22.9255 21.3508 23.2871 22.282 23.4501 23.2571C21.796 24.963 19.5852 26.0196 17.2188 26.235ZM16.3125 6.34375C21.8089 6.34375 26.2812 10.8161 26.2812 16.3125C26.2812 18.1893 25.7502 19.9402 24.8448 21.441C24.4011 20.1852 23.6853 19.0429 22.7488 18.0959C21.8123 17.1489 20.6781 16.4204 19.4273 15.9627C19.8737 15.5418 20.2296 15.0343 20.4732 14.4711C20.7167 13.908 20.8428 13.3011 20.8438 12.6875C20.8438 10.189 18.811 8.15625 16.3125 8.15625C13.814 8.15625 11.7812 10.189 11.7812 12.6875C11.7812 13.9771 12.3295 15.1362 13.1977 15.9618C11.9471 16.4198 10.8131 17.1483 9.87655 18.0953C8.94006 19.0423 8.22422 20.1844 7.78016 21.4401C6.84153 19.8944 6.34471 18.1209 6.34375 16.3125C6.34375 10.8161 10.8161 6.34375 16.3125 6.34375ZM9.17487 23.2571C9.33808 22.2821 9.69981 21.351 10.2376 20.5215C10.7754 19.692 11.4779 18.9818 12.3014 18.4349C12.6113 19.0344 13.0507 19.5575 13.5877 19.9663C14.1247 20.3751 14.7459 20.6593 15.4062 20.7984V26.235C13.0398 26.0196 10.829 24.963 9.17487 23.2571ZM45.3125 0.90625H47.125V4.53125H45.3125V0.90625ZM35.6047 5.17559L36.8862 3.89416L39.6049 6.61291L38.3235 7.89434L35.6047 5.17559ZM52.8217 6.61472L55.5404 3.89597L56.8219 5.17741L54.1031 7.89616L52.8217 6.61472Z" fill="url(#paint0_linear_1232_1236)"/>
<path d="M49.8438 29.9062V55.2812H48.0312V33.5312H40.7812V55.2812H38.9688V42.5938H31.7188V55.2812H29.9062V40.7812H22.6562V55.2812H19.9139C20.5137 54.5015 20.8404 53.5462 20.8438 52.5625V38.0625C20.8428 37.6044 20.7259 37.1539 20.5039 36.7531C20.2819 36.3524 19.962 36.0144 19.5741 35.7706C19.7988 35.3746 19.9375 34.9242 19.9375 34.4375V31.2702C22.1469 30.7371 24.2102 29.72 25.9786 28.2922L30.7908 33.5856C30.2188 34.3564 29.9088 35.2902 29.9062 36.25C29.9062 38.7485 31.939 40.7812 34.4375 40.7812C36.936 40.7812 38.9688 38.7485 38.9688 36.25C38.9688 35.2685 38.647 34.365 38.1142 33.6219L43.7293 27.5754C44.189 27.911 44.7433 28.0925 45.3125 28.0938H47.125C48.6239 28.0938 49.8438 26.8739 49.8438 25.375V22.8447C49.8438 22.2385 50.1428 21.6693 50.624 21.3594C51.7759 20.624 52.7235 19.6098 53.3792 18.4107C54.0348 17.2117 54.3774 15.8666 54.375 14.5C54.3742 13.3513 54.1312 12.2156 53.6618 11.1672C53.1924 10.1188 52.5071 9.18112 51.6508 8.41544C50.7895 7.649 49.776 7.07305 48.6767 6.72527C47.5775 6.37748 46.4172 6.26569 45.2717 6.39722C41.6005 6.81228 38.5972 9.77119 38.1305 13.4324C37.7254 16.6116 39.1437 19.6538 41.8316 21.3721C42.3019 21.6721 42.5928 22.2512 42.5928 22.8828V25.375C42.5928 25.6043 42.63 25.8236 42.6835 26.0366L36.7811 32.3921C36.0772 31.9552 35.2659 31.7221 34.4375 31.7188C33.5938 31.7188 32.8117 31.9662 32.1347 32.3694L27.3189 27.0724C30.0358 24.2929 31.7188 20.4976 31.7188 16.3125C31.7188 7.81731 24.8077 0.90625 16.3125 0.90625C7.81731 0.90625 0.90625 7.81731 0.90625 16.3125C0.90625 23.5571 5.93866 29.6335 12.6875 31.2702V34.4375C12.6875 34.9242 12.8262 35.3746 13.0509 35.7706C12.663 36.0144 12.3431 36.3524 12.1211 36.7531C11.8991 37.1539 11.7822 37.6044 11.7812 38.0625V52.5625C11.7812 55.061 13.814 57.0938 16.3125 57.0938H57.0938V29.9062H49.8438ZM42.5938 35.3438H46.2188V55.2812H42.5938V35.3438ZM33.5312 44.4062H37.1562V55.2812H33.5312V44.4062ZM24.4688 42.5938H28.0938V55.2812H24.4688V42.5938ZM47.125 26.2812H45.3125C44.8132 26.2812 44.4062 25.8743 44.4062 25.375V24.4688H48.0312V25.375C48.0312 25.8743 47.6243 26.2812 47.125 26.2812ZM45.3125 14.5C45.3125 14.0007 45.7194 13.5938 46.2188 13.5938C46.7181 13.5938 47.125 14.0007 47.125 14.5C47.125 14.9993 46.7181 15.4062 46.2188 15.4062C45.7194 15.4062 45.3125 14.9993 45.3125 14.5ZM39.9294 13.6617C40.2919 10.8188 42.6246 8.52056 45.4756 8.19794C45.7251 8.17012 45.9759 8.15621 46.2269 8.15625C47.7902 8.15625 49.2656 8.71541 50.4428 9.76756C51.109 10.363 51.6422 11.0922 52.0075 11.9077C52.3727 12.7231 52.5619 13.6065 52.5625 14.5C52.564 15.5629 52.2974 16.6091 51.7874 17.5416C51.2773 18.4742 50.5402 19.263 49.6444 19.8351C48.6865 20.4513 48.1019 21.4963 48.043 22.6562H47.125V17.052C47.6536 16.8657 48.1115 16.5204 48.436 16.0635C48.7605 15.6066 48.9357 15.0604 48.9375 14.5C48.9375 13.0011 47.7177 11.7812 46.2188 11.7812C44.7198 11.7812 43.5 13.0011 43.5 14.5C43.5 15.6799 44.2603 16.6768 45.3125 17.052V22.6562H44.3927C44.3256 21.4863 43.7483 20.4459 42.8085 19.8451C40.716 18.5083 39.6131 16.1394 39.9294 13.6617ZM37.1562 36.25C37.1562 37.7489 35.9364 38.9688 34.4375 38.9688C32.9386 38.9688 31.7188 37.7489 31.7188 36.25C31.7188 34.7511 32.9386 33.5312 34.4375 33.5312C35.9364 33.5312 37.1562 34.7511 37.1562 36.25ZM2.71875 16.3125C2.71875 8.81691 8.81691 2.71875 16.3125 2.71875C23.8081 2.71875 29.9062 8.81691 29.9062 16.3125C29.9062 23.8081 23.8081 29.9062 16.3125 29.9062C8.81691 29.9062 2.71875 23.8081 2.71875 16.3125ZM16.3125 31.7188C16.9269 31.7188 17.5296 31.6725 18.125 31.6028V34.4375C18.125 34.9368 17.7181 35.3438 17.2188 35.3438H15.4062C14.9069 35.3438 14.5 34.9368 14.5 34.4375V31.6028C15.0954 31.6725 15.6981 31.7188 16.3125 31.7188ZM13.5938 52.5625V38.0625C13.5938 37.5632 14.0007 37.1562 14.5 37.1562H18.125C18.6243 37.1562 19.0312 37.5632 19.0312 38.0625V52.5625C19.0312 54.0614 17.8114 55.2812 16.3125 55.2812C14.8136 55.2812 13.5938 54.0614 13.5938 52.5625ZM55.2812 55.2812H51.6562V31.7188H55.2812V55.2812Z" fill="url(#paint1_linear_1232_1236)"/>
</g>
<defs>
<linearGradient id="paint0_linear_1232_1236" x1="4.53125" y1="14.5" x2="60.5461" y2="14.5" gradientUnits="userSpaceOnUse">
<stop stop-color="#673EB6"/>
<stop offset="1" stop-color="#291949"/>
</linearGradient>
<linearGradient id="paint1_linear_1232_1236" x1="0.90625" y1="29" x2="61.0955" y2="29" gradientUnits="userSpaceOnUse">
<stop stop-color="#673EB6"/>
<stop offset="1" stop-color="#291949"/>
</linearGradient>
<clipPath id="clip0_1232_1236">
<rect width="58" height="58" fill="white"/>
</clipPath>
</defs>
</svg>
