<svg width="195" height="40" viewBox="0 0 195 40" fill="none" xmlns="http://www.w3.org/2000/svg">
<path d="M35.1 0H0V40H35.1V0Z" fill="white"/>
<path d="M28.1658 13.758V6.66699H21.0887V13.4748H13.4462V26.9495H6.22852V33.474H28.0237V26.9495H21.0887V13.758H28.1658Z" fill="#673EB6"/>
<path d="M45.9316 32.9694V28.8999H51.0796V18.5427L46.9093 18.7966V14.7271L52.7076 14.3633C53.6251 14.3158 54.3258 14.5336 54.8097 15.0165C55.2937 15.4995 55.5357 16.1904 55.5357 17.0892V28.8999H60.6852V32.9694H45.9316Z" fill="white"/>
<path d="M73.8877 18.4325C72.0991 18.4325 70.6971 19.0321 69.6819 20.2312C68.6666 21.4304 68.1569 23.2538 68.1527 25.7016V32.9691H63.4805V14.7268H68.1527V17.3056L67.3187 20.1043H68.5157C68.9019 18.3851 69.6813 16.9981 70.8542 15.9435C72.027 14.8888 73.5561 14.362 75.4415 14.363C77.6883 14.363 79.4465 15.0715 80.7162 16.4883C81.9858 17.9052 82.6206 19.9464 82.6206 22.6119V32.9691H77.9854V23.3023C77.9854 21.5583 77.6651 20.3107 77.0247 19.5594C76.3842 18.8082 75.3385 18.4325 73.8877 18.4325Z" fill="white"/>
<path d="M102.246 28.0638C102.246 31.5725 99.5984 33.3268 94.3037 33.3268C91.2145 33.3268 88.9245 32.7148 87.4335 31.4909C85.9425 30.267 85.199 28.5411 85.2031 26.3131H89.88C89.88 28.5896 91.3911 29.7279 94.4133 29.7279C96.517 29.7279 97.5683 29.1469 97.5673 27.9849C97.576 27.7032 97.506 27.4246 97.3652 27.1806C97.2244 26.9367 97.0183 26.737 96.7703 26.6041C96.238 26.2884 95.2829 25.9127 93.9052 25.4772C93.5417 25.3792 93.2637 25.2941 93.0711 25.2218C90.6781 24.4231 89.1067 23.7936 88.3571 23.3334C86.8342 22.3644 86.0619 21.044 86.0403 19.3722C86.0403 17.7964 86.6926 16.5669 87.9972 15.6835C89.3019 14.8002 91.127 14.358 93.4727 14.3569C96.2529 14.3569 98.3077 14.9684 99.637 16.1912C100.966 17.4141 101.632 18.9465 101.633 20.7886H96.951C96.951 18.898 95.7787 17.9533 93.4341 17.9543C91.6208 17.9543 90.7141 18.4631 90.7141 19.4806C90.7141 20.0378 91.0405 20.4862 91.6934 20.8257C92.3462 21.1652 93.5185 21.6131 95.2103 22.1693C97.628 22.9701 99.1875 23.5759 99.8888 23.9866C101.459 24.9597 102.245 26.3188 102.246 28.0638Z" fill="white"/>
<path d="M112.327 29.262L118.892 28.8998V32.9693L110.474 33.333C109.555 33.3568 108.854 33.1266 108.37 32.6427C107.886 32.1587 107.645 31.4435 107.646 30.4972V18.7964H103.441V14.7269H107.647V10.8014L112.324 9.3479V14.7269H118.163V18.7964H112.327V29.262Z" fill="white"/>
<path d="M121.572 27.9541C121.572 26.3804 122.098 25.1327 123.149 24.2112C124.201 23.2897 125.935 22.6839 128.353 22.3939L134.662 21.6308C134.59 19.3543 133.188 18.2156 130.457 18.2145C129.175 18.2145 128.153 18.4993 127.392 19.069C126.631 19.6386 126.251 20.4926 126.251 21.6308H121.826C121.826 19.4751 122.624 17.7249 124.22 16.3802C125.816 15.0356 127.895 14.3648 130.457 14.3679C133.091 14.3679 135.23 15.0903 136.874 16.535C138.519 17.9798 139.342 20.0437 139.345 22.7267V28.8999H141.984V32.9694H138.286C137.488 32.9694 136.877 32.7511 136.454 32.3146C136.031 31.8781 135.819 31.2723 135.819 30.4973V29.8782L136.545 27.807H135.31C134.44 31.489 131.999 33.3306 127.985 33.3316C126.68 33.3316 125.574 33.1494 124.668 32.7852C123.761 32.4209 123.103 31.9364 122.692 31.3317C122.318 30.8028 122.024 30.2211 121.821 29.6057C121.655 29.071 121.571 28.5141 121.572 27.9541ZM126.251 27.1554C126.251 27.8581 126.486 28.3849 126.957 28.7358C127.427 29.0867 128.05 29.2621 128.824 29.2621C130.59 29.2621 132.004 28.8199 133.067 27.9355C134.13 27.0511 134.661 25.8943 134.662 24.4651L129.187 25.1554C128.147 25.2782 127.398 25.4784 126.94 25.756C126.481 26.0336 126.252 26.5001 126.251 27.1554Z" fill="white"/>
<path d="M158.376 32.9693L153.227 25.3736L149.311 27.3364V32.9693H144.633V6.25977H149.311V22.5037L158.013 18.1417L157.831 14.7269H162.474L162.619 18.4698C162.643 19.9476 161.99 21.0136 160.661 21.6678L157.179 23.4123L163.707 32.9693H158.376Z" fill="white"/>
<path d="M165.629 32.9694V28.8999H170.778V18.5427L166.608 18.7966V14.7271L172.41 14.3633C173.328 14.3158 174.029 14.5336 174.513 15.0165C174.997 15.4995 175.239 16.1904 175.238 17.0892V28.8999H180.387V32.9694H165.629Z" fill="white"/>
<path d="M188.437 29.262L195 28.8998V32.9693L186.588 33.333C185.668 33.3568 184.966 33.1266 184.485 32.6427C184.003 32.1587 183.761 31.4435 183.759 30.4972V18.7964H179.553V14.7269H183.759V10.8014L188.437 9.3479V14.7269H194.275V18.7964H188.437V29.262Z" fill="white"/>
<path d="M169.414 7.51668V12.6233H174.51V7.51668H169.414Z" fill="white"/>
<path d="M50.5273 7.51668V12.6233H55.6228V7.51668H50.5273Z" fill="white"/>
</svg>
